\relax 
\providecommand\hyper@newdestlabel[2]{}
\providecommand\HyperFirstAtBeginDocument{\AtBeginDocument}
\HyperFirstAtBeginDocument{\ifx\hyper@anchor\@undefined
\global\let\oldcontentsline\contentsline
\gdef\contentsline#1#2#3#4{\oldcontentsline{#1}{#2}{#3}}
\global\let\oldnewlabel\newlabel
\gdef\newlabel#1#2{\newlabelxx{#1}#2}
\gdef\newlabelxx#1#2#3#4#5#6{\oldnewlabel{#1}{{#2}{#3}}}
\AtEndDocument{\ifx\hyper@anchor\@undefined
\let\contentsline\oldcontentsline
\let\newlabel\oldnewlabel
\fi}
\fi}
\global\let\hyper@last\relax 
\gdef\HyperFirstAtBeginDocument#1{#1}
\providecommand\HyField@AuxAddToFields[1]{}
\providecommand\HyField@AuxAddToCoFields[2]{}
\@writefile{toc}{\contentsline {section}{\numberline {1}Obiettivo}{1}{section.1}}
\@writefile{toc}{\contentsline {section}{\numberline {2}Materiale}{1}{section.2}}
\newlabel{sec:materiale}{{2}{1}{Materiale}{section.2}{}}
\@writefile{toc}{\contentsline {section}{\numberline {3}Tools}{1}{section.3}}
\@writefile{toc}{\contentsline {section}{\numberline {4}Svolgimento}{2}{section.4}}
\@writefile{toc}{\contentsline {section}{\numberline {5}Discussione}{2}{section.5}}
\newlabel{sec:discussione}{{5}{2}{Discussione}{section.5}{}}
